synthesis/testbench.vcd
$date
	Fri Nov 17 23:49:30 2017
$end
$version
	Icarus Verilog
$end
$timescale
	1s
$end
$scope module testbench $end
$var wire 8 ! q_tb [7:0] $end
$var reg 1 " clk_tb $end
$var reg 1 # clr_tb $end
$var reg 1 $ e_tb $end
$scope module dut1 $end
$var wire 1 " clk $end
$var wire 1 # clr $end
$var wire 1 $ e $end
$var wire 8 % d [7:0] $end
$var reg 8 & q [7:0] $end
$var reg 8 ' r [7:0] $end
$upscope $end
$upscope $end
$enddefinitions $end
#150
$dumpvars
b1010101 '
b10101010 &
b10101010 %
1$
0#
1"
b10101010 !
$end
#200
0"
#250
b10101010 '
b11111111 !
b11111111 %
b11111111 &
1"
#300
0"
#350
b10101001 !
b10101001 %
b10101001 &
b1010101 '
1"
#400
0"
#450
b10101010 '
b11111110 !
b11111110 %
b11111110 &
1"
#500
0"
#550
b10101000 !
b10101000 %
b10101000 &
b1010101 '
1"
#600
0"
#650
b10101010 '
b11111101 !
b11111101 %
b11111101 &
1"
#700
0"
#750
b10100111 !
b10100111 %
b10100111 &
b1010101 '
1"
#800
0"
#850
b10101010 '
b11111100 !
b11111100 %
b11111100 &
1"
#900
0"
#950
b10100110 !
b10100110 %
b10100110 &
b1010101 '
1"
#1000
0"
#1050
b10101010 '
b11111011 !
b11111011 %
b11111011 &
1"
#1100
0"
#1150
b10100101 !
b10100101 %
b10100101 &
b1010101 '
1"
#1200
0"
#1250
b10101010 '
b11111010 !
b11111010 %
b11111010 &
1"
#1300
0"
#1350
b10100100 !
b10100100 %
b10100100 &
b1010101 '
1"
#1400
0"
#1450
b10101010 '
b11111001 !
b11111001 %
b11111001 &
1"
#1500
0"
#1550
b10100011 !
b10100011 %
b10100011 &
b1010101 '
1"
#1600
0"
#1650
b10101010 '
b11111000 !
b11111000 %
b11111000 &
1"
#1700
0"
#1750
b10100010 !
b10100010 %
b10100010 &
b1010101 '
1"
#1800
0"
#1850
b10101010 '
b11110111 !
b11110111 %
b11110111 &
1"
#1900
0"
#1950
b10100001 !
b10100001 %
b10100001 &
b1010101 '
1"
#2000
0"
#2050
b10101010 '
b11110110 !
b11110110 %
b11110110 &
1"
#2100
0"
#2150
b10100000 !
b10100000 %
b10100000 &
b1010101 '
1"
#2200
0"
#2250
b10101010 '
b11110101 !
b11110101 %
b11110101 &
1"
#2300
0"
#2350
b10011111 !
b10011111 %
b10011111 &
b1010101 '
1"
#2400
0"
#2450
b10101010 '
b11110100 !
b11110100 %
b11110100 &
1"
#2500
0"
#2550
b10011110 !
b10011110 %
b10011110 &
b1010101 '
1"
#2600
0"
#2650
b10101010 '
b11110011 !
b11110011 %
b11110011 &
1"
#2700
0"
#2750
b10011101 !
b10011101 %
b10011101 &
b1010101 '
1"
#2800
0"
#2850
b10101010 '
b11110010 !
b11110010 %
b11110010 &
1"
#2900
0"
#2950
b10011100 !
b10011100 %
b10011100 &
b1010101 '
1"
#3000
0"
#3050
b10101010 '
b11110001 !
b11110001 %
b11110001 &
1"
#3100
0"
#3150
b10011011 !
b10011011 %
b10011011 &
b1010101 '
1"
#3200
0"
#3250
b10101010 '
b11110000 !
b11110000 %
b11110000 &
1"
#3300
0"
#3350
b10011010 !
b10011010 %
b10011010 &
b1010101 '
1"
#3400
0"
#3450
b10101010 '
b11101111 !
b11101111 %
b11101111 &
1"
#3500
0"
#3550
b10011001 !
b10011001 %
b10011001 &
b1010101 '
1"
#3600
0"
#3650
b10101010 '
b11101110 !
b11101110 %
b11101110 &
1"
#3700
0"
#3750
b10011000 !
b10011000 %
b10011000 &
b1010101 '
1"
#3800
0"
#3850
b10101010 '
b11101101 !
b11101101 %
b11101101 &
1"
#3900
0"
#3950
b10010111 !
b10010111 %
b10010111 &
b1010101 '
1"
#4000
0"
#4050
b10101010 '
b11101100 !
b11101100 %
b11101100 &
1"
#4100
0"
#4150
b10010110 !
b10010110 %
b10010110 &
b1010101 '
1"
#4200
0"
#4250
b10101010 '
b11101011 !
b11101011 %
b11101011 &
1"
#4300
0"
#4350
b10010101 !
b10010101 %
b10010101 &
b1010101 '
1"
#4400
0"
#4450
b10101010 '
b11101010 !
b11101010 %
b11101010 &
1"
#4500
0"
#4550
b10010100 !
b10010100 %
b10010100 &
b1010101 '
1"
#4600
0"
#4650
b10101010 '
b11101001 !
b11101001 %
b11101001 &
1"
#4700
0"
#4750
b10010011 !
b10010011 %
b10010011 &
b1010101 '
1"
#4800
0"
#4850
b10101010 '
b11101000 !
b11101000 %
b11101000 &
1"
#4900
0"
#4950
b10010010 !
b10010010 %
b10010010 &
b1010101 '
1"
#5000
0"
#5050
b10101010 '
b11100111 !
b11100111 %
b11100111 &
1"
#5100
0"
#5150
b10010001 !
b10010001 %
b10010001 &
b1010101 '
1"
#5200
0"
#5250
b10101010 '
b11100110 !
b11100110 %
b11100110 &
1"
#5300
0"
#5350
b10010000 !
b10010000 %
b10010000 &
b1010101 '
1"
#5400
0"
#5450
b10101010 '
b11100101 !
b11100101 %
b11100101 &
1"
#5500
0"
#5550
b10001111 !
b10001111 %
b10001111 &
b1010101 '
1"
#5600
0"
#5650
b10101010 '
b11100100 !
b11100100 %
b11100100 &
1"
#5700
0"
#5750
b10001110 !
b10001110 %
b10001110 &
b1010101 '
1"
#5800
0"
#5850
b10101010 '
b11100011 !
b11100011 %
b11100011 &
1"
#5900
0"
#5950
b10001101 !
b10001101 %
b10001101 &
b1010101 '
1"
#6000
0"
#6050
b10101010 '
b11100010 !
b11100010 %
b11100010 &
1"
#6100
0"
#6150
b10001100 !
b10001100 %
b10001100 &
b1010101 '
1"
#6200
0"
#6250
b10101010 '
b11100001 !
b11100001 %
b11100001 &
1"
#6300
0"
#6350
b10001011 !
b10001011 %
b10001011 &
b1010101 '
1"
#6400
0"
#6450
b10101010 '
b11100000 !
b11100000 %
b11100000 &
1"
#6500
0"
#6550
b10001010 !
b10001010 %
b10001010 &
b1010101 '
1"
#6600
0"
#6650
b10101010 '
b11011111 !
b11011111 %
b11011111 &
1"
#6700
0"
#6750
b10001001 !
b10001001 %
b10001001 &
b1010101 '
1"
#6800
0"
#6850
b10101010 '
b11011110 !
b11011110 %
b11011110 &
1"
#6900
0"
#6950
b10001000 !
b10001000 %
b10001000 &
b1010101 '
1"
#7000
0"
#7050
b10101010 '
b11011101 !
b11011101 %
b11011101 &
1"
#7100
0"
#7150
b10000111 !
b10000111 %
b10000111 &
b1010101 '
1"
#7200
0"
#7250
b10101010 '
b11011100 !
b11011100 %
b11011100 &
1"
#7300
0"
#7350
b10000110 !
b10000110 %
b10000110 &
b1010101 '
1"
#7400
0"
#7450
b10101010 '
b11011011 !
b11011011 %
b11011011 &
1"
#7500
0"
#7550
b10000101 !
b10000101 %
b10000101 &
b1010101 '
1"
#7600
0"
#7650
b10101010 '
b11011010 !
b11011010 %
b11011010 &
1"
#7700
0"
#7750
b10000100 !
b10000100 %
b10000100 &
b1010101 '
1"
#7800
0"
#7850
b10101010 '
b11011001 !
b11011001 %
b11011001 &
1"
#7900
0"
#7950
b10000011 !
b10000011 %
b10000011 &
b1010101 '
1"
#8000
0"
#8050
b10101010 '
b11011000 !
b11011000 %
b11011000 &
1"
#8100
0"
#8150
b10000010 !
b10000010 %
b10000010 &
b1010101 '
1"
#8200
0"
#8250
b10101010 '
b11010111 !
b11010111 %
b11010111 &
1"
#8300
0"
#8350
b10000001 !
b10000001 %
b10000001 &
b1010101 '
1"
#8400
0"
#8450
b10101010 '
b11010110 !
b11010110 %
b11010110 &
1"
#8500
0"
#8550
b10000000 !
b10000000 %
b10000000 &
b1010101 '
1"
#8600
0"
#8650
b10101010 '
b11010101 !
b11010101 %
b11010101 &
1"
#8700
0"
#8750
b1111111 !
b1111111 %
b1111111 &
b1010101 '
1"
#8800
0"
#8850
b10101010 '
b11010100 !
b11010100 %
b11010100 &
1"
#8900
0"
#8950
b1111110 !
b1111110 %
b1111110 &
b1010101 '
1"
#9000
0"
#9050
b10101010 '
b11010011 !
b11010011 %
b11010011 &
1"
#9100
0"
#9150
b1111101 !
b1111101 %
b1111101 &
b1010101 '
1"
#9200
0"
#9250
b10101010 '
b11010010 !
b11010010 %
b11010010 &
1"
#9300
0"
#9350
b1111100 !
b1111100 %
b1111100 &
b1010101 '
1"
#9400
0"
#9450
b10101010 '
b11010001 !
b11010001 %
b11010001 &
1"
#9500
0"
#9550
b1111011 !
b1111011 %
b1111011 &
b1010101 '
1"
#9600
0"
#9650
b10101010 '
b11010000 !
b11010000 %
b11010000 &
1"
#9700
0"
#9750
b1111010 !
b1111010 %
b1111010 &
b1010101 '
1"
#9800
0"
#9850
b10101010 '
b11001111 !
b11001111 %
b11001111 &
1"
#9900
0"
#9950
b1111001 !
b1111001 %
b1111001 &
b1010101 '
1"
#10000
0"
#10050
b10101010 '
b11001110 !
b11001110 %
b11001110 &
1"
#10100
0"
#10150
b1111000 !
b1111000 %
b1111000 &
b1010101 '
1"
